Get the code.
…
outdated(config) # Everything is up to date.
## character(0)

build_times(digits = 4) # How long did it take to make each target?
## # A tibble: 28 x 5
##    item                   type   elapsed        user           system     
##  * <chr>                  <chr>  <S4: Duration> <S4: Duration> <S4: Durat>
##  1 "\"report.Rmd\""       import 0s             0.001s         0s         
##  2 "\"report.md\""        target 0.034s         0.034s         0s         
##  3 coef_regression1_large target 0.004s         0.003s         0s         
##  4 coef_regression1_small target 0.003s         0.003s         0s         
##  5 coef_regression2_large target 0.003s         0.003s         0s         
##  6 coef_regression2_small target 0.003s         0.003s         0s         
##  7 data.frame             import 0.021s         0.021s         0s         
##  8 knit                   import 0.015s         0.016s         0s         
##  9 large                  target 0.004s         0.004s         0s         
## 10 lm                     import 0.006s         0.007s         0s         
## # ... with 18 more rows
…
