Predicting runtime
…
Thanks to Jasper Clarkberg, drake records how long it takes to build each target. For large projects that take hours or days to run, this feature becomes important for planning and execution.

library(drake)
load_basic_example() # Get the code with drake_example("basic").
## Unloading targets from environment:
##   large
##   small
##   coef_regression2_small
make(my_plan, jobs = 2, verbose = FALSE) # See also max_useful_jobs(my_plan).

build_times(digits = 8) # From the cache.
## # A tibble: 28 x 5
##    item                   type   elapsed        user           system     
##  * <chr>                  <chr>  <S4: Duration> <S4: Duration> <S4: Durat>
##  1 "\"report.Rmd\""       import 0.002s         0s             0.002s     
##  2 "\"report.md\""        target 0.042s         0.038s         0.004s     
##  3 coef_regression1_large target 0.007s         0.002s         0.005s     
##  4 coef_regression1_small target 0.006s         0.007s         0s         
##  5 coef_regression2_large target 0.005s         0.004s         0s         
##  6 coef_regression2_small target 0.004s         0.003s         0.001s     
##  7 data.frame             import 0.041s         0.037s         0.004s     
##  8 knit                   import 0.034s         0.027s         0.007s     
##  9 large                  target 0.008s         0.008s         0s         
## 10 lm                     import 0.021s         0.009s         0.011s     
## # ... with 18 more rows
…
